@startuml "Prozess Modell GA ohne DW"
title Prozess Modell eines GA mit SORMAS aber ohne DW 

skinparam sequence {
    ArrowColor #21ABAB
    ActorBorderColor #21ABAB
    LifeLineBorderColor #21ABAB
    ParticipantBorderColor #21ABAB
    ParticipantBackgroundColor white
    ParticipantFontColor #002F33
}

actor "GA Mitarbeiter" #21ABAB
database SORMAS #FFFFFF
actor "Index Person" #FFFFFF
actor "Kontakt Person" #FFFFFF

group Beschaffung der Kontakpersonenliste
    "GA Mitarbeiter" -> SORMAS : Daten einsehen
    activate "GA Mitarbeiter"
    SORMAS --> "GA Mitarbeiter" : Kontaktdaten von Index Person und zugehörige Kontaktermittlungs-Aufgabe
    "GA Mitarbeiter" -> "Index Person" : Anrufen und Kontakte abfragen
    "Index Person" --> "GA Mitarbeiter" : Informationen über Kontakte
    loop für jede Kontaktperson
        "GA Mitarbeiter" -> SORMAS : Kontaktperson anlegen
        "GA Mitarbeiter" -> SORMAS : Informationen einpflegen
        "GA Mitarbeiter" -> SORMAS : Aufgabe zur Nachverfolgung erstellen
    end
    "GA Mitarbeiter" -> SORMAS : Kontaktermittlungs-Aufgabe als erledigt markieren
    deactivate "GA Mitarbeiter"
end

...

group Nachverfolgung einer Kontaktperson
    "GA Mitarbeiter" -> SORMAS : Nachverfolgungs-Aufgaben einsehen
    activate "GA Mitarbeiter"
    SORMAS --> "GA Mitarbeiter" : Infos zur Nachverfolgung einer Kontaktperson
    "GA Mitarbeiter" -> "Kontakt Person" : Anrufen und Daten + Kontakt validieren
    "Kontakt Person" --> "GA Mitarbeiter" : Informationen
    "GA Mitarbeiter" -> SORMAS : Daten aktualisieren
    "GA Mitarbeiter" -> SORMAS : Aufgabe als erledigt markieren
    deactivate "GA Mitarbeiter"
end
@enduml