@startuml "Prozess Modell GA mit DW und Aufgabe"
title Prozess Modell eines GA mit SORMAS & DW und aufgaben-basierter Aktivierung und E-Mail Versand

skinparam sequence {
    ArrowColor #21ABAB
    ActorBorderColor #21ABAB
    LifeLineBorderColor #21ABAB
    ParticipantBorderColor #21ABAB
    ParticipantBackgroundColor white
    ParticipantFontColor #002F33
}

actor "GA Mitarbeiter" #21ABAB
database SORMAS #FFFFFF
actor "Index Person" #FFFFFF
participant DW
actor "Kontakt Person" #FFFFFF

group Beschaffung der Kontakpersonenliste
    "GA Mitarbeiter" -> SORMAS : Kontaktermittlungsaufgabe an "DW Bot" zuweisen
    activate "GA Mitarbeiter"
    deactivate "GA Mitarbeiter"
    DW -> "SORMAS" : Abruf neuer zugeiteilter Aufgaben
    SORMAS --> "DW" : E-Mail und Fall - ID des Index Falls
    DW -> "Index Person" : E-Mail mit personalisiertem Link zu DW verschicken
    DW -> SORMAS : Bestehende Kontaktermittlungs-aufgabe als erledigt markieren
    ||45||
    "Index Person" -> "Index Person" : E-Mail öffnen und Link zu DW klicken
    "Index Person" -> DW : Liste von Kontaktpersonen angeben
    DW -> SORMAS : Kontaktpersonen für Indexfall erstellen
    DW -> SORMAS : Nachverfolgungsaufgaben für jede Kontaktperson erstellen
end

...

group Nachverfolgung einer Kontaktperson
    "GA Mitarbeiter" -> SORMAS : Nachverfolgungs-Aufgaben einsehen
    activate "GA Mitarbeiter"
    SORMAS --> "GA Mitarbeiter" : Infos zur Nachverfolgung einer Kontaktperson
    "GA Mitarbeiter" -> "Kontakt Person" : Anrufen und Daten + Kontakt validieren
    "Kontakt Person" --> "GA Mitarbeiter" : Informationen
    "GA Mitarbeiter" -> SORMAS : Daten aktualisieren
    "GA Mitarbeiter" -> SORMAS : Aufgabe als erledigt markieren
    deactivate "GA Mitarbeiter"
end
@enduml