
@startuml "Client - Authentifizierung Session"
title Client - Authentifizierung mit Session Cookie

skinparam sequence {
    ArrowColor #21ABAB
    ActorBorderColor #21ABAB
    LifeLineBorderColor #21ABAB
    ParticipantBorderColor #21ABAB
    ParticipantBackgroundColor white
    ParticipantFontColor #002F33
}

actor "User (Browser)" #21ABAB
participant "Web-Server"
participant "API"

"User (Browser)" -> "Web-Server" : Seite Anfrage (Request /)
"Web-Server" -> "API" : /auth/authenticate mit Token
"API" --> "Web-Server" : Session Cookie
"Web-Server" --> "User (Browser)" : Seite inklusive Session Cookie
...
"User (Browser)" -> "Web-Server" : Request beliebiger Api-Ressource inklusive Session Cookie
"Web-Server" -> "API" : Request beliebiger Api-Ressource inklusive Session Cookie
"API" --> "Web-Server" : Response
"Web-Server" --> "User (Browser)" : Response
...
"User (Browser)" -> "Web-Server" : Request beliebiger Api-Ressource ohne (da z.b. abgelaufen) Session Cookie
"Web-Server" -> "API" : Request beliebiger Api-Ressource ohne Session Cookie
"API" --> "Web-Server" : Unauthorized Response
"Web-Server" --> "User (Browser)" : Unauthorized Response
"User (Browser)" -> "User (Browser)" : Benachrichtigung über abgelaufene Session mit Bitte Seite neu zu laden
@enduml